{
  "type": "GROUP",
"name": "Global Information",
"path": "",
"pathFormatted": "group_missing-name-b06d1",
"stats": {
    "name": "Global Information",
    "numberOfRequests": {
        "total": 99010,
        "ok": 79202,
        "ko": 19808
    },
    "minResponseTime": {
        "total": 0,
        "ok": 0,
        "ko": 0
    },
    "maxResponseTime": {
        "total": 29092,
        "ok": 29070,
        "ko": 29092
    },
    "meanResponseTime": {
        "total": 3390,
        "ok": 2102,
        "ko": 8540
    },
    "standardDeviation": {
        "total": 7503,
        "ok": 6141,
        "ko": 9874
    },
    "percentiles1": {
        "total": 3,
        "ok": 3,
        "ko": 5002
    },
    "percentiles2": {
        "total": 19,
        "ok": 8,
        "ko": 17003
    },
    "percentiles3": {
        "total": 23004,
        "ok": 19024,
        "ko": 27003
    },
    "percentiles4": {
        "total": 28007,
        "ok": 28001,
        "ko": 29004
    },
    "group1": {
        "name": "t < 800 ms",
        "count": 69438,
        "percentage": 70
    },
    "group2": {
        "name": "800 ms < t < 1200 ms",
        "count": 0,
        "percentage": 0
    },
    "group3": {
        "name": "t > 1200 ms",
        "count": 9764,
        "percentage": 10
    },
    "group4": {
        "name": "failed",
        "count": 19808,
        "percentage": 20
    },
    "meanNumberOfRequestsPerSecond": {
        "total": 153.74223602484471,
        "ok": 122.98447204968944,
        "ko": 30.757763975155278
    }
},
"contents": {
"req_request-1-46da4": {
        "type": "REQUEST",
        "name": "request_1",
"path": "request_1",
"pathFormatted": "req_request-1-46da4",
"stats": {
    "name": "request_1",
    "numberOfRequests": {
        "total": 99010,
        "ok": 79202,
        "ko": 19808
    },
    "minResponseTime": {
        "total": 0,
        "ok": 0,
        "ko": 0
    },
    "maxResponseTime": {
        "total": 29092,
        "ok": 29070,
        "ko": 29092
    },
    "meanResponseTime": {
        "total": 3390,
        "ok": 2102,
        "ko": 8540
    },
    "standardDeviation": {
        "total": 7503,
        "ok": 6141,
        "ko": 9874
    },
    "percentiles1": {
        "total": 3,
        "ok": 3,
        "ko": 5002
    },
    "percentiles2": {
        "total": 19,
        "ok": 8,
        "ko": 17003
    },
    "percentiles3": {
        "total": 23004,
        "ok": 19024,
        "ko": 27003
    },
    "percentiles4": {
        "total": 28007,
        "ok": 28001,
        "ko": 29004
    },
    "group1": {
        "name": "t < 800 ms",
        "count": 69438,
        "percentage": 70
    },
    "group2": {
        "name": "800 ms < t < 1200 ms",
        "count": 0,
        "percentage": 0
    },
    "group3": {
        "name": "t > 1200 ms",
        "count": 9764,
        "percentage": 10
    },
    "group4": {
        "name": "failed",
        "count": 19808,
        "percentage": 20
    },
    "meanNumberOfRequestsPerSecond": {
        "total": 153.74223602484471,
        "ok": 122.98447204968944,
        "ko": 30.757763975155278
    }
}
    }
}

}